WorlddBankTest
…
`summarise()` has grouped output by 'region'. You can override using the
`.groups` argument.

# change year to character from double
summary_wdi <- summary_wdi %>%   mutate(year = as.character(year))
summary_wdi <- summary_wdi %>% ungroup()
print(summary_wdi)

# A tibble: 218 × 7
   region              year      N  Mean    SD   Min    Max
   <chr>               <chr> <int> <dbl> <dbl> <dbl>  <dbl>
 1 East Asia & Pacific 1990     22 4913. 8497.  582. 32846.
 2 East Asia & Pacific 1991     22 5105. 8691.  579. 33870.
 3 East Asia & Pacific 1992     22 5291. 8667.  597. 34049.
 4 East Asia & Pacific 1993     22 5483. 8576.  635. 33783.
 5 East Asia & Pacific 1994     22 5740. 8619.  669. 34054.
 6 East Asia & Pacific 1995     22 6037. 8796.  709. 34868.
 7 East Asia & Pacific 1996     22 6340. 9011.  746. 35879.
 8 East Asia & Pacific 1997     22 6538. 9045.  782. 36145.
 9 East Asia & Pacific 1998     22 6449. 8823.  817. 36099.
10 East Asia & Pacific 1999     22 6635. 8836.  875. 37476.
# ℹ 208 more rows
…
`summarise()` has grouped output by 'region'. You can override using the
`.groups` argument.

agg_wdi <- bind_rows(agg_wdi_mean, agg_wdi_sd, agg_wdi_min, agg_wdi_max, agg_wdi_median)
# reorder columns to match output
agg_wdi <- agg_wdi %>%
  select(estimate, everything())

agg_wdi <- agg_wdi %>%
  select(estimate, region, date, pop, everything())

print(agg_wdi)

# A tibble: 1,090 × 7
# Groups:   region [7]
   estimate region               date        pop lifeex   gdp pov_intl
   <chr>    <chr>               <dbl>      <dbl>  <dbl> <dbl>    <dbl>
 1 mean     East Asia & Pacific  1990 1754166013   68.2 4913.    0.590
 2 mean     East Asia & Pacific  1991 1779284317   68.4 5105.    0.573
 3 mean     East Asia & Pacific  1992 1802946756   68.9 5291.    0.550
 4 mean     East Asia & Pacific  1993 1825777375   69.3 5483.    0.523
 5 mean     East Asia & Pacific  1994 1848480100   69.6 5740.    0.483
 6 mean     East Asia & Pacific  1995 1870755748   70.0 6037.    0.450
 7 mean     East Asia & Pacific  1996 1892721009   70.3 6340.    0.410
 8 mean     East Asia & Pacific  1997 1914534267   70.7 6538.    0.408
 9 mean     East Asia & Pacific  1998 1935514675   71.1 6449.    0.417
10 mean     East Asia & Pacific  1999 1955084080   71.3 6635.    0.386
# ℹ 1,080 more rows
…
Warning: Using one column matrices in `filter()` was deprecated in dplyr 1.1.0.
ℹ Please use one dimensional logical vectors instead.

print(outliers)

# A tibble: 529 × 10
# Rowwise: 
   region             iso3c  date country lifeex_outlier[,1] gdp_outlier[,1]
   <chr>              <chr> <dbl> <chr>   <lgl>              <lgl>          
 1 Sub-Saharan Africa AGO    1990 Angola  TRUE               FALSE          
 2 Sub-Saharan Africa AGO    1991 Angola  TRUE               FALSE          
 3 Sub-Saharan Africa AGO    1992 Angola  TRUE               FALSE          
 4 Sub-Saharan Africa AGO    1993 Angola  TRUE               FALSE          
 5 Sub-Saharan Africa AGO    1994 Angola  TRUE               FALSE          
 6 Sub-Saharan Africa AGO    1995 Angola  TRUE               FALSE          
 7 Sub-Saharan Africa AGO    1996 Angola  TRUE               FALSE          
 8 Sub-Saharan Africa AGO    1997 Angola  TRUE               FALSE          
 9 Sub-Saharan Africa AGO    1998 Angola  TRUE               FALSE          
10 Sub-Saharan Africa AGO    1999 Angola  TRUE               FALSE          
# ℹ 519 more rows
# ℹ 4 more variables: gini_outlier <lgl[,1]>, lifeex <dbl>, gdp <dbl>,
#   gini <dbl>
…
    # format them in table
    fgt_measures[[idx]] <- tibble(
      year = 2000 + i,
      pov_line = pov_line,
      headcount = fgt_values$headcount,
      povgap = fgt_values$povgap,
      povseverity = fgt_values$povseverity
    )
    idx <- idx + 1
  }
}
fgt_results <- bind_rows(fgt_measures)
print(fgt_results)

# A tibble: 30 × 5
    year pov_line headcount povgap povseverity
   <dbl>    <dbl>     <dbl>  <dbl>       <dbl>
 1  2001     2.15     0.542  0.423       0.380
 2  2001     3.65     0.661  0.498       0.435
 3  2001     6.85     0.814  0.614       0.529
 4  2002     2.15     0.498  0.361       0.313
 5  2002     3.65     0.633  0.447       0.376
 6  2002     6.85     0.799  0.577       0.482
 7  2003     2.15     0.450  0.295       0.241
 8  2003     3.65     0.606  0.393       0.312
 9  2003     6.85     0.795  0.542       0.433
10  2004     2.15     0.389  0.216       0.158
# ℹ 20 more rows
…
